…
---

## 使用 `filter()` 来过滤行

例如, 我们想选择1月1号的所有航班


```r
library(dplyr)
filter(flights, month == 1, day == 1)
```

```
# A tibble: 842 × 19
    year month   day dep_time sched_dep_time dep_delay arr_time sched_arr_time arr_delay carrier
   <int> <int> <int>    <int>          <int>     <dbl>    <int>          <int>     <dbl>   <chr>
1   2013     1     1      517            515         2      830            819        11      UA
2   2013     1     1      533            529         4      850            830        20      UA
3   2013     1     1      542            540         2      923            850        33      AA
4   2013     1     1      544            545        -1     1004           1022       -18      B6
5   2013     1     1      554            600        -6      812            837       -25      DL
6   2013     1     1      554            558        -4      740            728        12      UA
7   2013     1     1      555            600        -5      913            854        19      B6
8   2013     1     1      557            600        -3      709            723       -14      EV
9   2013     1     1      557            600        -3      838            846        -8      B6
10  2013     1     1      558            600        -2      753            745         8      AA
# ... with 832 more rows, and 9 more variables: flight <int>, tailnum <chr>, origin <chr>,
#   dest <chr>, air_time <dbl>, distance <dbl>, hour <dbl>, minute <dbl>, time_hour <dttm>
```
…
---

## 使用 `arrange()` 对行进行排序

- 按年、月、日对航班进行排序


```r
arrange(flights , year, month, day)
```

```
# A tibble: 336,776 × 19
    year month   day dep_time sched_dep_time dep_delay arr_time sched_arr_time arr_delay carrier
   <int> <int> <int>    <int>          <int>     <dbl>    <int>          <int>     <dbl>   <chr>
1   2013     1     1      517            515         2      830            819        11      UA
2   2013     1     1      533            529         4      850            830        20      UA
3   2013     1     1      542            540         2      923            850        33      AA
4   2013     1     1      544            545        -1     1004           1022       -18      B6
5   2013     1     1      554            600        -6      812            837       -25      DL
6   2013     1     1      554            558        -4      740            728        12      UA
7   2013     1     1      555            600        -5      913            854        19      B6
8   2013     1     1      557            600        -3      709            723       -14      EV
9   2013     1     1      557            600        -3      838            846        -8      B6
10  2013     1     1      558            600        -2      753            745         8      AA
# ... with 336,766 more rows, and 9 more variables: flight <int>, tailnum <chr>, origin <chr>,
#   dest <chr>, air_time <dbl>, distance <dbl>, hour <dbl>, minute <dbl>, time_hour <dttm>
```

---

- 使用 `desc()` 对一列以降序排序


```r
arrange(flights, desc(dep_delay))
```

```
# A tibble: 336,776 × 19
    year month   day dep_time sched_dep_time dep_delay arr_time sched_arr_time arr_delay carrier
   <int> <int> <int>    <int>          <int>     <dbl>    <int>          <int>     <dbl>   <chr>
1   2013     1     9      641            900      1301     1242           1530      1272      HA
2   2013     6    15     1432           1935      1137     1607           2120      1127      MQ
3   2013     1    10     1121           1635      1126     1239           1810      1109      MQ
4   2013     9    20     1139           1845      1014     1457           2210      1007      AA
5   2013     7    22      845           1600      1005     1044           1815       989      MQ
6   2013     4    10     1100           1900       960     1342           2211       931      DL
7   2013     3    17     2321            810       911      135           1020       915      DL
8   2013     6    27      959           1900       899     1236           2226       850      DL
9   2013     7    22     2257            759       898      121           1026       895      DL
10  2013    12     5      756           1700       896     1058           2020       878      AA
# ... with 336,766 more rows, and 9 more variables: flight <int>, tailnum <chr>, origin <chr>,
#   dest <chr>, air_time <dbl>, distance <dbl>, hour <dbl>, minute <dbl>, time_hour <dttm>
```
…
---

## 使用 `select()` 选择列

- 通过变量名选择列


```r
select(flights, year, month, day)
```

```
# A tibble: 336,776 × 3
    year month   day
   <int> <int> <int>
1   2013     1     1
2   2013     1     1
3   2013     1     1
4   2013     1     1
5   2013     1     1
6   2013     1     1
7   2013     1     1
8   2013     1     1
9   2013     1     1
10  2013     1     1
# ... with 336,766 more rows
```

---

- 选择两个变量间的所有变量


```r
select(flights, year:day)
```

```
# A tibble: 336,776 × 3
    year month   day
   <int> <int> <int>
1   2013     1     1
2   2013     1     1
3   2013     1     1
4   2013     1     1
5   2013     1     1
6   2013     1     1
7   2013     1     1
8   2013     1     1
9   2013     1     1
10  2013     1     1
# ... with 336,766 more rows
```

---

- 选择除了某些变量外的所有变量


```r
select(flights, -(year:day)) #select(flights, -c(year, month, day))
```

```
# A tibble: 336,776 × 16
   dep_time sched_dep_time dep_delay arr_time sched_arr_time arr_delay carrier flight tailnum
      <int>          <int>     <dbl>    <int>          <int>     <dbl>   <chr>  <int>   <chr>
1       517            515         2      830            819        11      UA   1545  N14228
2       533            529         4      850            830        20      UA   1714  N24211
3       542            540         2      923            850        33      AA   1141  N619AA
4       544            545        -1     1004           1022       -18      B6    725  N804JB
5       554            600        -6      812            837       -25      DL    461  N668DN
6       554            558        -4      740            728        12      UA   1696  N39463
7       555            600        -5      913            854        19      B6    507  N516JB
8       557            600        -3      709            723       -14      EV   5708  N829AS
9       557            600        -3      838            846        -8      B6     79  N593JB
10      558            600        -2      753            745         8      AA    301  N3ALAA
# ... with 336,766 more rows, and 7 more variables: origin <chr>, dest <chr>, air_time <dbl>,
#   distance <dbl>, hour <dbl>, minute <dbl>, time_hour <dttm>
```
…
--- &twocol

## 使用 `distinct()` 提取不重复的行

*** =left


```r
distinct(flights, tailnum)
```

```
# A tibble: 4,044 × 1
   tailnum
     <chr>
1   N14228
2   N24211
3   N619AA
4   N804JB
5   N668DN
6   N39463
7   N516JB
8   N829AS
9   N593JB
10  N3ALAA
# ... with 4,034 more rows
```

*** =right


```r
distinct(flights, origin, dest)
```

```
# A tibble: 224 × 2
   origin  dest
    <chr> <chr>
1     EWR   IAH
2     LGA   IAH
3     JFK   MIA
4     JFK   BQN
5     LGA   ATL
6     EWR   ORD
7     EWR   FLL
8     LGA   IAD
9     JFK   MCO
10    LGA   ORD
# ... with 214 more rows
```

---

## 使用 `mutate()` 创建新列


```r
mutate(flights, gain = arr_delay - dep_delay, 
       speed = distance / air_time *60)
```

```
# A tibble: 336,776 × 21
    year month   day dep_time sched_dep_time dep_delay arr_time sched_arr_time arr_delay carrier
   <int> <int> <int>    <int>          <int>     <dbl>    <int>          <int>     <dbl>   <chr>
1   2013     1     1      517            515         2      830            819        11      UA
2   2013     1     1      533            529         4      850            830        20      UA
3   2013     1     1      542            540         2      923            850        33      AA
4   2013     1     1      544            545        -1     1004           1022       -18      B6
5   2013     1     1      554            600        -6      812            837       -25      DL
6   2013     1     1      554            558        -4      740            728        12      UA
7   2013     1     1      555            600        -5      913            854        19      B6
8   2013     1     1      557            600        -3      709            723       -14      EV
9   2013     1     1      557            600        -3      838            846        -8      B6
10  2013     1     1      558            600        -2      753            745         8      AA
# ... with 336,766 more rows, and 11 more variables: flight <int>, tailnum <chr>, origin <chr>,
#   dest <chr>, air_time <dbl>, distance <dbl>, hour <dbl>, minute <dbl>, time_hour <dttm>,
#   gain <dbl>, speed <dbl>
```

--- 

### 如果只想保留新创建的变量


```r
transmute(flights, gain = arr_delay - dep_delay, 
       speed = distance / air_time *60)
```

```
# A tibble: 336,776 × 2
    gain speed
   <dbl> <dbl>
1      9   370
2     16   374
3     31   408
4    -17   517
5    -19   394
6     16   288
7     24   404
8    -11   259
9     -5   405
10    10   319
# ... with 336,766 more rows
```
…
---


```r
sample_frac(flights, 0.01)
```

```
# A tibble: 3,368 × 19
    year month   day dep_time sched_dep_time dep_delay arr_time sched_arr_time arr_delay carrier
   <int> <int> <int>    <int>          <int>     <dbl>    <int>          <int>     <dbl>   <chr>
1   2013    11     6     1931           1935        -4     2228           2250       -22      AA
2   2013     6    10     1100           1100         0     1357           1332        25      DL
3   2013     3     9     1232           1237        -5     1519           1548       -29      UA
4   2013    11     2     1037           1035         2     1312           1322       -10      UA
5   2013    12     2     1259           1259         0     1452           1501        -9      US
6   2013    10    26     1446           1456       -10     1628           1640       -12      9E
7   2013    10    21      955           1000        -5     1130           1115        15      US
8   2013     4    10     2113           2120        -7       NA           2315        NA      EV
9   2013     6    12      552            600        -8      649            655        -6      US
10  2013     4    17      826            830        -4     1103           1019        44      9E
# ... with 3,358 more rows, and 9 more variables: flight <int>, tailnum <chr>, origin <chr>,
#   dest <chr>, air_time <dbl>, distance <dbl>, hour <dbl>, minute <dbl>, time_hour <dttm>
```
…
---

找出所有可能目的地的飞机数和航班数


```r
dest = group_by(flights, dest)
summarise(dest, 
          planes = n_distinct(tailnum),
          flights = n()
)
```

```
# A tibble: 105 × 3
    dest planes flights
   <chr>  <int>   <int>
1    ABQ    108     254
2    ACK     58     265
3    ALB    172     439
4    ANC      6       8
5    ATL   1180   17215
6    AUS    993    2439
7    AVL    159     275
8    BDL    186     443
9    BGR     46     375
10   BHM     45     297
# ... with 95 more rows
```

---

## 按多个变量进行分组


```r
daily <- group_by(flights, year, month, day)
(per_day   <- summarise(daily, flights = n()))
```

```
Source: local data frame [365 x 4]
Groups: year, month [?]

    year month   day flights
   <int> <int> <int>   <int>
1   2013     1     1     842
2   2013     1     2     943
3   2013     1     3     914
4   2013     1     4     915
5   2013     1     5     720
6   2013     1     6     832
7   2013     1     7     933
8   2013     1     8     899
9   2013     1     9     902
10  2013     1    10     932
# ... with 355 more rows
```
…
*** =right


```
Source: local data frame [49 x 5]
Groups: year, month [11]

    year month   day   arr   dep
   <int> <int> <int> <dbl> <dbl>
1   2013     1    16  34.2  24.6
2   2013     1    31  32.6  28.7
3   2013     2    11  36.3  39.1
4   2013     2    27  31.3  37.8
5   2013     3     8  85.9  83.5
6   2013     3    18  41.3  30.1
7   2013     4    10  38.4  33.0
8   2013     4    12  36.0  34.8
9   2013     4    18  36.0  34.9
10  2013     4    19  47.9  46.1
# ... with 39 more rows
```
